<?xml version="1.0" encoding="UTF-8" standalone="no"?>
<svg
   xmlns:dc="http://purl.org/dc/elements/1.1/"
   xmlns:cc="http://creativecommons.org/ns#"
   xmlns:rdf="http://www.w3.org/1999/02/22-rdf-syntax-ns#"
   xmlns:svg="http://www.w3.org/2000/svg"
   xmlns="http://www.w3.org/2000/svg"
   xmlns:sodipodi="http://sodipodi.sourceforge.net/DTD/sodipodi-0.dtd"
   xmlns:inkscape="http://www.inkscape.org/namespaces/inkscape"
   inkscape:version="1.0 (1.0+r73+1)"
   sodipodi:docname="logo.svg"
   id="svg24"
   version="1.1"
   viewBox="0 0 130.79915 36.99809"
   height="36.998089"
   width="130.79915">
  <metadata
     id="metadata28">
    <rdf:RDF>
      <cc:Work
         rdf:about="">
        <dc:format>image/svg+xml</dc:format>
        <dc:type
           rdf:resource="http://purl.org/dc/dcmitype/StillImage" />
        <dc:title></dc:title>
      </cc:Work>
    </rdf:RDF>
  </metadata>
  <sodipodi:namedview
     inkscape:current-layer="svg24"
     inkscape:window-maximized="1"
     inkscape:window-y="27"
     inkscape:window-x="0"
     inkscape:cy="20.48328"
     inkscape:cx="57.999366"
     inkscape:zoom="4.1058666"
     showgrid="false"
     id="namedview26"
     inkscape:window-height="845"
     inkscape:window-width="1600"
     inkscape:pageshadow="2"
     inkscape:pageopacity="0"
     guidetolerance="10"
     gridtolerance="10"
     objecttolerance="10"
     borderopacity="1"
     bordercolor="#666666"
     pagecolor="#ffffff" />
  <defs
     id="defs4">
    <style
       id="style2">
            .cls-4{fill:#dbd8dd}.cls-7{fill:#f6b863}.cls-8{fill:#eaa14e}
        </style>
  </defs>
  <g
     transform="translate(-6.3440542e-4,-3.1122188)"
     id="Group_7561">
    <g
       transform="translate(55.637,1)"
       fill="#91684a"
       id="Group_125">
      <text
         transform="translate(0.362,15.788)"
         font-size="18px"
         font-family="Tajawal-Regular, Tajawal"
         id="Record"><tspan
           id="tspan6"
           y="0"
           x="0">Record</tspan></text>
      <text
         transform="translate(-0.638,21.788)"
         font-weight="700"
         font-size="20px"
         font-family="Tajawal-Bold, Tajawal"
         id="Qur_an"><tspan
           id="tspan9"
           y="13"
           x="0">Qur’an</tspan></text>
    </g>
    <g
       transform="translate(0,4.403)"
       id="quran_-ic">
      <path
         transform="translate(-26.794,-33.991)"
         d="m 69.977,37.123 -1.844,-2.828 a 0.671,0.671 0 0 0 -0.905,-0.209 l -2.38,1.414 a 7.6,7.6 0 0 1 -3.8,1.046 c -2.481,0.033 -7,1.049 -9.854,7.394 -2.851,-6.345 -7.372,-7.361 -9.854,-7.394 A 7.6,7.6 0 0 1 37.54,35.5 l -2.38,-1.415 a 0.671,0.671 0 0 0 -0.905,0.209 l -1.844,2.828 18.037,12.329 1.948,-0.39 z"
         fill="#eeefee"
         id="Path_697" />
      <path
         transform="translate(-47.256,-38.416)"
         class="cls-4"
         d="m 71.626,53.932 a 0.476,0.476 0 0 0 0.059,0 0.446,0.446 0 0 0 0.384,-0.5 c -0.762,-5.89 -7.891,-8.388 -8.194,-8.49 a 0.445,0.445 0 1 0 -0.287,0.842 c 0.069,0.024 6.908,2.423 7.6,7.761 a 0.444,0.444 0 0 0 0.438,0.387 z"
         id="Path_698" />
      <path
         transform="translate(-25.791,-38.416)"
         class="cls-4"
         d="m 50.276,53.932 a 0.476,0.476 0 0 1 -0.059,0 0.446,0.446 0 0 1 -0.384,-0.5 c 0.762,-5.89 7.891,-8.388 8.194,-8.49 a 0.445,0.445 0 1 1 0.287,0.842 c -0.068,0.024 -6.908,2.423 -7.6,7.761 a 0.444,0.444 0 0 1 -0.438,0.387 z"
         id="Path_699" />
      <path
         transform="translate(-24.784,-35.686)"
         d="M 27.011,41.072 29.153,38.5 a 0.892,0.892 0 0 1 1.162,-0.178 l 18.84,11.988 18.952,-12 a 0.892,0.892 0 0 1 1.18,0.206 l 1.9,2.439 -22.087,14.58 z"
         fill="#16a897"
         id="Path_700" />
      <path
         transform="translate(-25.427,-35.685)"
         d="M 29.038,39.408 49.1,51.769 a 1.336,1.336 0 0 0 1.4,0 L 70.62,39.408 69.93,38.516 a 0.892,0.892 0 0 0 -1.18,-0.2 L 50.035,50.157 a 0.446,0.446 0 0 1 -0.476,0 L 30.959,38.318 A 0.892,0.892 0 0 0 29.8,38.5 Z"
         fill="#2cbfae"
         id="Path_701" />
      <path
         transform="translate(-38.161,-36.712)"
         class="cls-7"
         d="m 39.408,44.848 17.422,12.731 6.47,4.727 13.687,10 a 0.59,0.59 0 0 0 0.935,-0.476 v -3.688 a 6.448,6.448 0 0 0 -3.081,-5.5 L 68.314,58.648 61.7,54.593 39.114,40.769 a 0.416,0.416 0 0 0 -0.592,0.178 l -0.067,0.147 a 3.034,3.034 0 0 0 0.953,3.753 z"
         id="Path_702" />
      <path
         transform="translate(-35.642,-46.167)"
         class="cls-8"
         d="M 54.311,67.032 60.785,71.76 65.8,68.1 59.183,64.049 Z"
         id="Path_703" />
      <path
         transform="translate(-13.985,-36.715)"
         class="cls-7"
         d="M 61.818,40.774 26.085,62.644 A 6.449,6.449 0 0 0 23,68.144 v 3.689 a 0.588,0.588 0 0 0 0.935,0.476 l 37.589,-27.46 a 3.034,3.034 0 0 0 0.952,-3.748 l -0.07,-0.149 a 0.416,0.416 0 0 0 -0.588,-0.179 z"
         id="Path_704" />
      <path
         transform="translate(-38.964,-48.004)"
         class="cls-8"
         d="M 62.3,69.613 A 1.031,1.031 0 1 0 63.329,68.584 1.031,1.031 0 0 0 62.3,69.613 Z"
         id="Path_705" />
    </g>
  </g>
</svg>
